[
  {
    "type": "income",
    "name": "Plat"
  },
  {
    "type": "income",
    "name": "Podnikání"
  }, {
    "type": "income",
    "name": "Dárky"
  }, {
    "type": "income",
    "name": "Extra příjmy"
  }, {
    "type": "income",
    "name": "Půjčka"
  }, {
    "type": "income",
    "name": "Mateřská dovolená"
  }, {
    "type": "income",
    "name": "Výplata pojistného"
  }, {
    "type": "expenses",
    "name": "Jídlo & pití"
  }, {
    "type": "expenses",
    "name": "Nákupy"
  }, {
    "type": "expenses",
    "name": "Doprava"
  }, {
    "type": "expenses",
    "name": "Domov"
  }, {
    "type": "expenses",
    "name": "Faktury & Poplatky"
  }, {
    "type": "expenses",
    "name": "Zábava"
  }, {
    "type": "expenses",
    "name": "Vozidlo"
  }, {
    "type": "expenses",
    "name": "Cestování"
  }, {
    "type": "expenses",
    "name": "Rodina & osobní"
  }, {
    "type": "expenses",
    "name": "Zdraví"
  }, {
    "type": "expenses",
    "name": "Vzdělání"
  }, {
    "type": "expenses",
    "name": "Potraviny"
  }, {
    "type": "expenses",
    "name": "Dárky"
  }, {
    "type": "expenses",
    "name": "Sport & Koníčky"
  }, {
    "type": "expenses",
    "name": "Krása"
  }, {
    "type": "expenses",
    "name": "Pracovní výdaje"
  }, {
    "type": "expenses",
    "name": "Jiné"
  }
]