[
  {
    "type": "income",
    "category": "Plat",
    "note": "Plat",
    "price": "30000"
  },
  {
    "type": "income",
    "category": "Dárky",
    "note": "Dárek",
    "price": "1500"
  },
  {
    "type": "income",
    "category": "Půjčka",
    "note": "Půjčka",
    "price": "20000"
  },
  {
    "type": "income",
    "category": "Podnikání",
    "note": "Faktura",
    "price": "10000"
  },
  {
    "type": "income",
    "category": "Extra příjmy",
    "note": "Kapesný",
    "price": "5000"
  },
  {
    "type": "expenses",
    "category": "Nákupy",
    "note": "Jídlo",
    "price": "-5000"
  },
  {
    "type": "expenses",
    "category": "Vozidlo",
    "note": "Benzín",
    "price": "-3500"
  },
  {
    "type": "expenses",
    "category": "Domov",
    "note": "Nájem",
    "price": "-15000"
  },
  {
    "type": "expenses",
    "category": "Zábava",
    "note": "Kino",
    "price": "-1000"
  },
  {
    "type": "expenses",
    "category": "Zdraví",
    "note": "Pojištění",
    "price": "-2500"
  }
]